<?xml version="1.0" encoding="UTF-8"?>
<svg width="53px" height="53px" viewBox="0 0 53 53" version="1.1" xmlns="http://www.w3.org/2000/svg" xmlns:xlink="http://www.w3.org/1999/xlink">
    <!-- Generator: Sketch 64 (93537) - https://sketch.com -->
    <title>icon/id</title>
    <desc>Created with Sketch.</desc>
    <g id="1.1.Mobile-CustomerUser" stroke="none" stroke-width="1" fill="none" fill-rule="evenodd">
        <g id="1.5.Mobile-CustomerUser_DefaultScreen" transform="translate(-81.000000, -202.000000)">
            <g id="icon/id" transform="translate(81.000000, 202.000000)">
                <rect id="Rectangle" fill="#EBEBEB" x="0" y="0" width="53" height="53"></rect>
                <g id="001-id-card" transform="translate(9.000000, 16.000000)" fill-rule="nonzero">
                    <path d="M2.1875,0 L32.8125,0 C34.0205383,0 35,0.854802912 35,1.90909091 L35,19.0909091 C35,20.1451971 34.0205383,21 32.8125,21 L2.1875,21 C0.97946167,21 0,20.1451971 0,19.0909091 L0,1.90909091 C0,0.854802912 0.97946167,0 2.1875,0 Z" id="Path" fill="#3894F0"></path>
                    <path d="M12,7.5 C12,9.4331055 10.4331055,11 8.5,11 C6.5668945,11 5,9.4331055 5,7.5 C5,5.5668945 6.5668945,4 8.5,4 C10.4331055,4 12,5.5668945 12,7.5 Z" id="Path" fill="#E4EDFB"></path>
                    <path d="M14,17 L3,17 L3,14.5 C3,13.1193848 4.23132327,12 5.75,12 L11.25,12 C12.7686767,12 14,13.1193848 14,14.5 L14,17 Z" id="Path" fill="#E4EDFB"></path>
                    <g id="Group" transform="translate(17.000000, 5.000000)" fill="#FFFFFF">
                        <path d="M0.928571429,0 L12.0714286,0 C12.5842285,0 13,0.492529263 13,1.1 C13,1.70747074 12.5842285,2.2 12.0714286,2.2 L0.928571429,2.2 C0.415771455,2.2 0,1.70747074 0,1.1 C0,0.492529263 0.415771455,0 0.928571429,0 Z" id="Path"></path>
                        <path d="M0.928571429,4.4 L2.78571429,4.4 C3.29851426,4.4 3.71428571,4.89252926 3.71428571,5.5 C3.71428571,6.10747074 3.29851426,6.6 2.78571429,6.6 L0.928571429,6.6 C0.415771455,6.6 -6.7661432e-14,6.10747074 -6.7661432e-14,5.5 C-6.7661432e-14,4.89252926 0.415771455,4.4 0.928571429,4.4 Z" id="Path"></path>
                        <path d="M6.5,4.4 L12.0714286,4.4 C12.5842285,4.4 13,4.89252926 13,5.5 C13,6.10747074 12.5842285,6.6 12.0714286,6.6 L6.5,6.6 C5.98720003,6.6 5.57142857,6.10747074 5.57142857,5.5 C5.57142857,4.89252926 5.98720003,4.4 6.5,4.4 Z" id="Path"></path>
                        <path d="M0.928571429,8.8 L2.78571429,8.8 C3.29851426,8.8 3.71428571,9.29252926 3.71428571,9.9 C3.71428571,10.5074707 3.29851426,11 2.78571429,11 L0.928571429,11 C0.415771455,11 -6.7661432e-14,10.5074707 -6.7661432e-14,9.9 C-6.7661432e-14,9.29252926 0.415771455,8.8 0.928571429,8.8 Z" id="Path"></path>
                        <path d="M6.5,8.8 L12.0714286,8.8 C12.5842285,8.8 13,9.29252926 13,9.9 C13,10.5074707 12.5842285,11 12.0714286,11 L6.5,11 C5.98720003,11 5.57142857,10.5074707 5.57142857,9.9 C5.57142857,9.29252926 5.98720003,8.8 6.5,8.8 Z" id="Path"></path>
                    </g>
                </g>
            </g>
        </g>
    </g>
</svg>